Aug 4
Defect 52282 - 8

Aug 6
Defects 52337 - 8

Aug 7
Defects 52337 - 8

Aug 8
Defects 52402 / 52419 - 8

Aug 11
Defect 52419 - 8

Aug 12
Defect 52419 - 8

Aug 13
Defects 52337 / 52652 - 8

Aug 14
Defect 52337 - 8

Aug 15
Defect 52337 - 8

Aug 18
Defect 52337 - 8

Aug 19
Defect 52337 - 8

Aug 20
Defect 52337 - 8

Aug 21
Defect 52337 - 8

Aug 22
Defects 52337 / 52402 - 8

Aug 25
Defects 52337 / 52845 - 8

Aug 26
Defects 52337 / 52617 - 8

Aug 27
Defect 52337 - 8

Aug 28
Defects 52337 / 53637 - 8
